Final Project
…
sentiment  <-  Amazon5 %>%
    unnest_tokens(word, review_body) %>%
    inner_join(get_sentiments("afinn"), by = "word") %>%
    group_by(review_id) %>%
    summarize(sentiment = mean(value), words = n()) #%>%
    #filter(words >= 5)

sentiment %>% arrange(desc(sentiment))

## # A tibble: 418,279 x 3
##    review_id      sentiment words
##    <chr>              <dbl> <int>
##  1 R104R4K3XBSM1L         5     1
##  2 R1056S7HZGSBH          5     1
##  3 R10GWDDIL9VDTP         5     1
##  4 R10HOG9H099F4Z         5     1
##  5 R10IVYXUCXSIUV         5     1
##  6 R10NT8Q2ZVQ793         5     1
##  7 R11M5V0EWUYBQ6         5     1
##  8 R11NJ5MJ4NEQJH         5     1
##  9 R123827INJW25H         5     1
## 10 R12H5GP85S9V6H         5     1
## #  with 418,269 more rows
…
